{
    "app-id" : "com.gitlab.joanml.Tentacles.Devel",
    "runtime" : "org.gnome.Sdk",
    "runtime-version" : "master",
    "sdk" : "org.gnome.Sdk",
    "sdk-extensions" : [
        "org.freedesktop.Sdk.Extension.rust-stable"
    ],
    "command" : "tentacles",
    "finish-args" : [
        "--talk-name=org.gnome.Shell.Extensions",
        "--talk-name=org.gnome.SessionManager",
        "--share=network",
        "--socket=fallback-x11",
        "--socket=wayland",
        "--device=dri",
        "--talk-name=org.a11y.Bus",
        "--env=RUST_LOG=tentacles=debug",
        "--env=G_MESSAGES_DEBUG=none",
        "--env=RUST_BACKTRACE=1"
    ],
    "build-options" : {
        "append-path" : "/usr/lib/sdk/rust-stable/bin",
        "build-args" : [
            "--share=network"
        ],
        "test-args" : [
            "--socket=x11",
            "--share=network"
        ],
        "env" : {        }
    },
    "modules" : [
        {
            "name" : "libadwaita",
            "buildsystem" : "meson",
            "config-opts" : [
                "-Dintrospection=enabled",
                "-Dtests=false",
                "-Dexamples=false",
                "-Dvapi=false"
            ],
            "cleanup" : [
                "/include",
                "/lib/pkgconfig"
            ],
            "sources" : [
                {
                    "type" : "git",
                    "url" : "https://gitlab.gnome.org/GNOME/libadwaita.git",
                    "branch" : "main"
                }
            ]
        },
        {
            "name" : "tentacles",
            "buildsystem" : "meson",
            "run-tests" : true,
            "config-opts" : [
                "-Dprofile=development"
            ],
            "sources" : [
                {
                    "type" : "dir",
                    "path" : "../"
                }
            ]
        }
    ]
}
